%YAML 1.1
%TAG !u! tag:unity3d.com,2011:
--- !u!1001 &8360975960827537071
PrefabInstance:
  m_ObjectHideFlags: 0
  serializedVersion: 2
  m_Modification:
    m_TransformParent: {fileID: 0}
    m_Modifications:
    - target: {fileID: 5613689927685654106, guid: f6c449a3d78ebcc438729aed23421a37,
        type: 3}
      propertyPath: lengthInSec
      value: 0.1
      objectReference: {fileID: 0}
    - target: {fileID: 5613689927685654106, guid: f6c449a3d78ebcc438729aed23421a37,
        type: 3}
      propertyPath: InitialModule.startLifetime.minMaxState
      value: 0
      objectReference: {fileID: 0}
    - target: {fileID: 5613689927685654106, guid: f6c449a3d78ebcc438729aed23421a37,
        type: 3}
      propertyPath: InitialModule.startLifetime.scalar
      value: 0.1
      objectReference: {fileID: 0}
    - target: {fileID: 5613689927685654106, guid: f6c449a3d78ebcc438729aed23421a37,
        type: 3}
      propertyPath: InitialModule.startSize.scalar
      value: 0.05
      objectReference: {fileID: 0}
    - target: {fileID: 5613689927685654106, guid: f6c449a3d78ebcc438729aed23421a37,
        type: 3}
      propertyPath: EmissionModule.m_Bursts.Array.data[0].countCurve.scalar
      value: 20
      objectReference: {fileID: 0}
    - target: {fileID: 5613689927685654106, guid: f6c449a3d78ebcc438729aed23421a37,
        type: 3}
      propertyPath: ShapeModule.radius.value
      value: 0.0001
      objectReference: {fileID: 0}
    - target: {fileID: 5613689927685767162, guid: f6c449a3d78ebcc438729aed23421a37,
        type: 3}
      propertyPath: m_VelocityScale
      value: 0.02
      objectReference: {fileID: 0}
    - target: {fileID: 5613689927700832058, guid: f6c449a3d78ebcc438729aed23421a37,
        type: 3}
      propertyPath: m_Name
      value: Sparks Variant
      objectReference: {fileID: 0}
    - target: {fileID: 5613689927700857626, guid: f6c449a3d78ebcc438729aed23421a37,
        type: 3}
      propertyPath: m_LocalPosition.x
      value: 0
      objectReference: {fileID: 0}
    - target: {fileID: 5613689927700857626, guid: f6c449a3d78ebcc438729aed23421a37,
        type: 3}
      propertyPath: m_LocalPosition.y
      value: 0
      objectReference: {fileID: 0}
    - target: {fileID: 5613689927700857626, guid: f6c449a3d78ebcc438729aed23421a37,
        type: 3}
      propertyPath: m_LocalPosition.z
      value: 0
      objectReference: {fileID: 0}
    - target: {fileID: 5613689927700857626, guid: f6c449a3d78ebcc438729aed23421a37,
        type: 3}
      propertyPath: m_LocalRotation.x
      value: -0.7071068
      objectReference: {fileID: 0}
    - target: {fileID: 5613689927700857626, guid: f6c449a3d78ebcc438729aed23421a37,
        type: 3}
      propertyPath: m_LocalRotation.y
      value: 0
      objectReference: {fileID: 0}
    - target: {fileID: 5613689927700857626, guid: f6c449a3d78ebcc438729aed23421a37,
        type: 3}
      propertyPath: m_LocalRotation.z
      value: 0
      objectReference: {fileID: 0}
    - target: {fileID: 5613689927700857626, guid: f6c449a3d78ebcc438729aed23421a37,
        type: 3}
      propertyPath: m_LocalRotation.w
      value: 0.7071068
      objectReference: {fileID: 0}
    - target: {fileID: 5613689927700857626, guid: f6c449a3d78ebcc438729aed23421a37,
        type: 3}
      propertyPath: m_RootOrder
      value: 0
      objectReference: {fileID: 0}
    - target: {fileID: 5613689927700857626, guid: f6c449a3d78ebcc438729aed23421a37,
        type: 3}
      propertyPath: m_LocalEulerAnglesHint.x
      value: -90
      objectReference: {fileID: 0}
    - target: {fileID: 5613689927700857626, guid: f6c449a3d78ebcc438729aed23421a37,
        type: 3}
      propertyPath: m_LocalEulerAnglesHint.y
      value: 0
      objectReference: {fileID: 0}
    - target: {fileID: 5613689927700857626, guid: f6c449a3d78ebcc438729aed23421a37,
        type: 3}
      propertyPath: m_LocalEulerAnglesHint.z
      value: 0
      objectReference: {fileID: 0}
    m_RemovedComponents: []
  m_SourcePrefab: {fileID: 100100000, guid: f6c449a3d78ebcc438729aed23421a37, type: 3}
