%YAML 1.1
%TAG !u! tag:unity3d.com,2011:
--- !u!135 &2249173766846450712
SphereCollider:
  m_ObjectHideFlags: 0
  m_CorrespondingSourceObject: {fileID: 0}
  m_PrefabInstance: {fileID: 0}
  m_PrefabAsset: {fileID: 0}
  m_GameObject: {fileID: 2754991001079287231}
  m_Material: {fileID: 0}
  m_IsTrigger: 0
  m_Enabled: 1
  serializedVersion: 2
  m_Radius: 0.22
  m_Center: {x: -0.16, y: 0, z: 0}
--- !u!136 &8108610608551772561
CapsuleCollider:
  m_ObjectHideFlags: 0
  m_CorrespondingSourceObject: {fileID: 0}
  m_PrefabInstance: {fileID: 0}
  m_PrefabAsset: {fileID: 0}
  m_GameObject: {fileID: 2754997738983711161}
  m_Material: {fileID: 0}
  m_IsTrigger: 0
  m_Enabled: 1
  m_Radius: 0.24
  m_Height: 0.6
  m_Direction: 2
  m_Center: {x: 0, y: 0, z: 0.04}
--- !u!1001 &2756200690028630431
PrefabInstance:
  m_ObjectHideFlags: 0
  serializedVersion: 2
  m_Modification:
    m_TransformParent: {fileID: 8215136227108557842}
    m_Modifications:
    - target: {fileID: 1391888216552696, guid: 0c74bed2ad49fad4d94fca86441ad49f, type: 3}
      propertyPath: m_Name
      value: FreeZombie
      objectReference: {fileID: 0}
    - target: {fileID: 1487910000834540, guid: 0c74bed2ad49fad4d94fca86441ad49f, type: 3}
      propertyPath: m_IsActive
      value: 1
      objectReference: {fileID: 0}
    - target: {fileID: 4069218432573694, guid: 0c74bed2ad49fad4d94fca86441ad49f, type: 3}
      propertyPath: m_LocalRotation.x
      value: 0.77621925
      objectReference: {fileID: 0}
    - target: {fileID: 4069218432573694, guid: 0c74bed2ad49fad4d94fca86441ad49f, type: 3}
      propertyPath: m_LocalRotation.y
      value: 0.03841785
      objectReference: {fileID: 0}
    - target: {fileID: 4069218432573694, guid: 0c74bed2ad49fad4d94fca86441ad49f, type: 3}
      propertyPath: m_LocalRotation.z
      value: 0.20141056
      objectReference: {fileID: 0}
    - target: {fileID: 4069218432573694, guid: 0c74bed2ad49fad4d94fca86441ad49f, type: 3}
      propertyPath: m_LocalRotation.w
      value: -0.59618926
      objectReference: {fileID: 0}
    - target: {fileID: 4069218432573694, guid: 0c74bed2ad49fad4d94fca86441ad49f, type: 3}
      propertyPath: m_LocalPosition.x
      value: -0.11165714
      objectReference: {fileID: 0}
    - target: {fileID: 4069218432573694, guid: 0c74bed2ad49fad4d94fca86441ad49f, type: 3}
      propertyPath: m_LocalPosition.y
      value: 0
      objectReference: {fileID: 0}
    - target: {fileID: 4069218432573694, guid: 0c74bed2ad49fad4d94fca86441ad49f, type: 3}
      propertyPath: m_LocalPosition.z
      value: 0.000000019073486
      objectReference: {fileID: 0}
    - target: {fileID: 4122494694327054, guid: 0c74bed2ad49fad4d94fca86441ad49f, type: 3}
      propertyPath: m_LocalRotation.x
      value: -0.07437871
      objectReference: {fileID: 0}
    - target: {fileID: 4122494694327054, guid: 0c74bed2ad49fad4d94fca86441ad49f, type: 3}
      propertyPath: m_LocalRotation.y
      value: 0.18759477
      objectReference: {fileID: 0}
    - target: {fileID: 4122494694327054, guid: 0c74bed2ad49fad4d94fca86441ad49f, type: 3}
      propertyPath: m_LocalRotation.z
      value: -0.008691924
      objectReference: {fileID: 0}
    - target: {fileID: 4122494694327054, guid: 0c74bed2ad49fad4d94fca86441ad49f, type: 3}
      propertyPath: m_LocalRotation.w
      value: 0.9793878
      objectReference: {fileID: 0}
    - target: {fileID: 4122494694327054, guid: 0c74bed2ad49fad4d94fca86441ad49f, type: 3}
      propertyPath: m_LocalPosition.y
      value: -0.000000009536743
      objectReference: {fileID: 0}
    - target: {fileID: 4122494694327054, guid: 0c74bed2ad49fad4d94fca86441ad49f, type: 3}
      propertyPath: m_LocalPosition.z
      value: 0
      objectReference: {fileID: 0}
    - target: {fileID: 4122494694327054, guid: 0c74bed2ad49fad4d94fca86441ad49f, type: 3}
      propertyPath: m_LocalPosition.x
      value: -0.051421735
      objectReference: {fileID: 0}
    - target: {fileID: 4173493039440322, guid: 0c74bed2ad49fad4d94fca86441ad49f, type: 3}
      propertyPath: m_LocalRotation.x
      value: -0.4790538
      objectReference: {fileID: 0}
    - target: {fileID: 4173493039440322, guid: 0c74bed2ad49fad4d94fca86441ad49f, type: 3}
      propertyPath: m_LocalRotation.y
      value: 0.78628486
      objectReference: {fileID: 0}
    - target: {fileID: 4173493039440322, guid: 0c74bed2ad49fad4d94fca86441ad49f, type: 3}
      propertyPath: m_LocalRotation.z
      value: 0.37810868
      objectReference: {fileID: 0}
    - target: {fileID: 4173493039440322, guid: 0c74bed2ad49fad4d94fca86441ad49f, type: 3}
      propertyPath: m_LocalRotation.w
      value: 0.09642323
      objectReference: {fileID: 0}
    - target: {fileID: 4173493039440322, guid: 0c74bed2ad49fad4d94fca86441ad49f, type: 3}
      propertyPath: m_LocalPosition.x
      value: -0.00000011417898
      objectReference: {fileID: 0}
    - target: {fileID: 4173493039440322, guid: 0c74bed2ad49fad4d94fca86441ad49f, type: 3}
      propertyPath: m_LocalPosition.y
      value: -0.000000078697774
      objectReference: {fileID: 0}
    - target: {fileID: 4173493039440322, guid: 0c74bed2ad49fad4d94fca86441ad49f, type: 3}
      propertyPath: m_LocalPosition.z
      value: -0.065819904
      objectReference: {fileID: 0}
    - target: {fileID: 4211271206672348, guid: 0c74bed2ad49fad4d94fca86441ad49f, type: 3}
      propertyPath: m_LocalRotation.x
      value: -0.4569291
      objectReference: {fileID: 0}
    - target: {fileID: 4211271206672348, guid: 0c74bed2ad49fad4d94fca86441ad49f, type: 3}
      propertyPath: m_LocalRotation.y
      value: -0.1331479
      objectReference: {fileID: 0}
    - target: {fileID: 4211271206672348, guid: 0c74bed2ad49fad4d94fca86441ad49f, type: 3}
      propertyPath: m_LocalRotation.z
      value: 0.8767637
      objectReference: {fileID: 0}
    - target: {fileID: 4211271206672348, guid: 0c74bed2ad49fad4d94fca86441ad49f, type: 3}
      propertyPath: m_LocalRotation.w
      value: 0.06908596
      objectReference: {fileID: 0}
    - target: {fileID: 4211271206672348, guid: 0c74bed2ad49fad4d94fca86441ad49f, type: 3}
      propertyPath: m_LocalPosition.y
      value: -0.032242335
      objectReference: {fileID: 0}
    - target: {fileID: 4211271206672348, guid: 0c74bed2ad49fad4d94fca86441ad49f, type: 3}
      propertyPath: m_LocalPosition.z
      value: 0.033819135
      objectReference: {fileID: 0}
    - target: {fileID: 4211271206672348, guid: 0c74bed2ad49fad4d94fca86441ad49f, type: 3}
      propertyPath: m_LocalPosition.x
      value: -0.097930945
      objectReference: {fileID: 0}
    - target: {fileID: 4258670039305084, guid: 0c74bed2ad49fad4d94fca86441ad49f, type: 3}
      propertyPath: m_LocalRotation.x
      value: -0.021080254
      objectReference: {fileID: 0}
    - target: {fileID: 4258670039305084, guid: 0c74bed2ad49fad4d94fca86441ad49f, type: 3}
      propertyPath: m_LocalRotation.y
      value: -0.04304194
      objectReference: {fileID: 0}
    - target: {fileID: 4258670039305084, guid: 0c74bed2ad49fad4d94fca86441ad49f, type: 3}
      propertyPath: m_LocalRotation.z
      value: -0.80796343
      objectReference: {fileID: 0}
    - target: {fileID: 4258670039305084, guid: 0c74bed2ad49fad4d94fca86441ad49f, type: 3}
      propertyPath: m_LocalRotation.w
      value: 0.5872803
      objectReference: {fileID: 0}
    - target: {fileID: 4258670039305084, guid: 0c74bed2ad49fad4d94fca86441ad49f, type: 3}
      propertyPath: m_LocalPosition.x
      value: -0.03855766
      objectReference: {fileID: 0}
    - target: {fileID: 4258670039305084, guid: 0c74bed2ad49fad4d94fca86441ad49f, type: 3}
      propertyPath: m_LocalPosition.y
      value: 0.03821402
      objectReference: {fileID: 0}
    - target: {fileID: 4258670039305084, guid: 0c74bed2ad49fad4d94fca86441ad49f, type: 3}
      propertyPath: m_LocalPosition.z
      value: 0.000000009536743
      objectReference: {fileID: 0}
    - target: {fileID: 4308342478993942, guid: 0c74bed2ad49fad4d94fca86441ad49f, type: 3}
      propertyPath: m_LocalRotation.x
      value: -0.00038227762
      objectReference: {fileID: 0}
    - target: {fileID: 4308342478993942, guid: 0c74bed2ad49fad4d94fca86441ad49f, type: 3}
      propertyPath: m_LocalRotation.z
      value: -0.000111328896
      objectReference: {fileID: 0}
    - target: {fileID: 4308342478993942, guid: 0c74bed2ad49fad4d94fca86441ad49f, type: 3}
      propertyPath: m_LocalPosition.x
      value: -0.082578905
      objectReference: {fileID: 0}
    - target: {fileID: 4308342478993942, guid: 0c74bed2ad49fad4d94fca86441ad49f, type: 3}
      propertyPath: m_LocalPosition.y
      value: 0.0015519619
      objectReference: {fileID: 0}
    - target: {fileID: 4313923049426554, guid: 0c74bed2ad49fad4d94fca86441ad49f, type: 3}
      propertyPath: m_LocalRotation.x
      value: 0.5904375
      objectReference: {fileID: 0}
    - target: {fileID: 4313923049426554, guid: 0c74bed2ad49fad4d94fca86441ad49f, type: 3}
      propertyPath: m_LocalRotation.y
      value: 0.14655864
      objectReference: {fileID: 0}
    - target: {fileID: 4313923049426554, guid: 0c74bed2ad49fad4d94fca86441ad49f, type: 3}
      propertyPath: m_LocalRotation.z
      value: -0.024926003
      objectReference: {fileID: 0}
    - target: {fileID: 4313923049426554, guid: 0c74bed2ad49fad4d94fca86441ad49f, type: 3}
      propertyPath: m_LocalRotation.w
      value: 0.7932735
      objectReference: {fileID: 0}
    - target: {fileID: 4313923049426554, guid: 0c74bed2ad49fad4d94fca86441ad49f, type: 3}
      propertyPath: m_LocalPosition.x
      value: -0.11165714
      objectReference: {fileID: 0}
    - target: {fileID: 4313923049426554, guid: 0c74bed2ad49fad4d94fca86441ad49f, type: 3}
      propertyPath: m_LocalPosition.y
      value: 0.000000019073486
      objectReference: {fileID: 0}
    - target: {fileID: 4313923049426554, guid: 0c74bed2ad49fad4d94fca86441ad49f, type: 3}
      propertyPath: m_LocalPosition.z
      value: 0.0000000047683715
      objectReference: {fileID: 0}
    - target: {fileID: 4345270400996816, guid: 0c74bed2ad49fad4d94fca86441ad49f, type: 3}
      propertyPath: m_LocalRotation.x
      value: 0.35330832
      objectReference: {fileID: 0}
    - target: {fileID: 4345270400996816, guid: 0c74bed2ad49fad4d94fca86441ad49f, type: 3}
      propertyPath: m_LocalRotation.y
      value: -0.27213955
      objectReference: {fileID: 0}
    - target: {fileID: 4345270400996816, guid: 0c74bed2ad49fad4d94fca86441ad49f, type: 3}
      propertyPath: m_LocalRotation.z
      value: 0.10041912
      objectReference: {fileID: 0}
    - target: {fileID: 4345270400996816, guid: 0c74bed2ad49fad4d94fca86441ad49f, type: 3}
      propertyPath: m_LocalRotation.w
      value: 0.88939834
      objectReference: {fileID: 0}
    - target: {fileID: 4345270400996816, guid: 0c74bed2ad49fad4d94fca86441ad49f, type: 3}
      propertyPath: m_LocalPosition.x
      value: -0.0731485
      objectReference: {fileID: 0}
    - target: {fileID: 4345270400996816, guid: 0c74bed2ad49fad4d94fca86441ad49f, type: 3}
      propertyPath: m_LocalPosition.y
      value: -0.000000002375463
      objectReference: {fileID: 0}
    - target: {fileID: 4345270400996816, guid: 0c74bed2ad49fad4d94fca86441ad49f, type: 3}
      propertyPath: m_LocalPosition.z
      value: -1.395562e-10
      objectReference: {fileID: 0}
    - target: {fileID: 4388395901640278, guid: 0c74bed2ad49fad4d94fca86441ad49f, type: 3}
      propertyPath: m_LocalRotation.x
      value: -0.000000010959593
      objectReference: {fileID: 0}
    - target: {fileID: 4388395901640278, guid: 0c74bed2ad49fad4d94fca86441ad49f, type: 3}
      propertyPath: m_LocalRotation.y
      value: -0.000000016547396
      objectReference: {fileID: 0}
    - target: {fileID: 4388395901640278, guid: 0c74bed2ad49fad4d94fca86441ad49f, type: 3}
      propertyPath: m_LocalRotation.z
      value: 0.14448541
      objectReference: {fileID: 0}
    - target: {fileID: 4388395901640278, guid: 0c74bed2ad49fad4d94fca86441ad49f, type: 3}
      propertyPath: m_LocalRotation.w
      value: 0.98950696
      objectReference: {fileID: 0}
    - target: {fileID: 4388395901640278, guid: 0c74bed2ad49fad4d94fca86441ad49f, type: 3}
      propertyPath: m_LocalPosition.z
      value: -0.0000000047683715
      objectReference: {fileID: 0}
    - target: {fileID: 4388395901640278, guid: 0c74bed2ad49fad4d94fca86441ad49f, type: 3}
      propertyPath: m_LocalPosition.y
      value: -0.0000000047683715
      objectReference: {fileID: 0}
    - target: {fileID: 4391145272985422, guid: 0c74bed2ad49fad4d94fca86441ad49f, type: 3}
      propertyPath: m_LocalRotation.x
      value: 0.5446588
      objectReference: {fileID: 0}
    - target: {fileID: 4391145272985422, guid: 0c74bed2ad49fad4d94fca86441ad49f, type: 3}
      propertyPath: m_LocalRotation.y
      value: -0.35041368
      objectReference: {fileID: 0}
    - target: {fileID: 4391145272985422, guid: 0c74bed2ad49fad4d94fca86441ad49f, type: 3}
      propertyPath: m_LocalRotation.z
      value: 0.71328807
      objectReference: {fileID: 0}
    - target: {fileID: 4391145272985422, guid: 0c74bed2ad49fad4d94fca86441ad49f, type: 3}
      propertyPath: m_LocalRotation.w
      value: -0.26791295
      objectReference: {fileID: 0}
    - target: {fileID: 4391145272985422, guid: 0c74bed2ad49fad4d94fca86441ad49f, type: 3}
      propertyPath: m_LocalPosition.x
      value: -0.09793098
      objectReference: {fileID: 0}
    - target: {fileID: 4391145272985422, guid: 0c74bed2ad49fad4d94fca86441ad49f, type: 3}
      propertyPath: m_LocalPosition.y
      value: -0.032242145
      objectReference: {fileID: 0}
    - target: {fileID: 4391145272985422, guid: 0c74bed2ad49fad4d94fca86441ad49f, type: 3}
      propertyPath: m_LocalPosition.z
      value: -0.033819333
      objectReference: {fileID: 0}
    - target: {fileID: 4421030785304486, guid: 0c74bed2ad49fad4d94fca86441ad49f, type: 3}
      propertyPath: m_LocalRotation.x
      value: -0.055202655
      objectReference: {fileID: 0}
    - target: {fileID: 4421030785304486, guid: 0c74bed2ad49fad4d94fca86441ad49f, type: 3}
      propertyPath: m_LocalRotation.y
      value: -0.024768276
      objectReference: {fileID: 0}
    - target: {fileID: 4421030785304486, guid: 0c74bed2ad49fad4d94fca86441ad49f, type: 3}
      propertyPath: m_LocalRotation.z
      value: -0.094920225
      objectReference: {fileID: 0}
    - target: {fileID: 4421030785304486, guid: 0c74bed2ad49fad4d94fca86441ad49f, type: 3}
      propertyPath: m_LocalRotation.w
      value: 0.9936445
      objectReference: {fileID: 0}
    - target: {fileID: 4421030785304486, guid: 0c74bed2ad49fad4d94fca86441ad49f, type: 3}
      propertyPath: m_LocalPosition.y
      value: -0.0052522277
      objectReference: {fileID: 0}
    - target: {fileID: 4421030785304486, guid: 0c74bed2ad49fad4d94fca86441ad49f, type: 3}
      propertyPath: m_LocalPosition.z
      value: -0.026663546
      objectReference: {fileID: 0}
    - target: {fileID: 4421030785304486, guid: 0c74bed2ad49fad4d94fca86441ad49f, type: 3}
      propertyPath: m_LocalPosition.x
      value: -0.030959338
      objectReference: {fileID: 0}
    - target: {fileID: 4425632174361494, guid: 0c74bed2ad49fad4d94fca86441ad49f, type: 3}
      propertyPath: m_LocalRotation.x
      value: 0.12258677
      objectReference: {fileID: 0}
    - target: {fileID: 4425632174361494, guid: 0c74bed2ad49fad4d94fca86441ad49f, type: 3}
      propertyPath: m_LocalRotation.y
      value: 0.027932048
      objectReference: {fileID: 0}
    - target: {fileID: 4425632174361494, guid: 0c74bed2ad49fad4d94fca86441ad49f, type: 3}
      propertyPath: m_LocalRotation.z
      value: -0.09451035
      objectReference: {fileID: 0}
    - target: {fileID: 4425632174361494, guid: 0c74bed2ad49fad4d94fca86441ad49f, type: 3}
      propertyPath: m_LocalRotation.w
      value: 0.9875526
      objectReference: {fileID: 0}
    - target: {fileID: 4425632174361494, guid: 0c74bed2ad49fad4d94fca86441ad49f, type: 3}
      propertyPath: m_LocalPosition.x
      value: -0.053167038
      objectReference: {fileID: 0}
    - target: {fileID: 4425632174361494, guid: 0c74bed2ad49fad4d94fca86441ad49f, type: 3}
      propertyPath: m_LocalPosition.y
      value: 0.0035478778
      objectReference: {fileID: 0}
    - target: {fileID: 4425632174361494, guid: 0c74bed2ad49fad4d94fca86441ad49f, type: 3}
      propertyPath: m_LocalPosition.z
      value: 0.0014931782
      objectReference: {fileID: 0}
    - target: {fileID: 4433239628633526, guid: 0c74bed2ad49fad4d94fca86441ad49f, type: 3}
      propertyPath: m_LocalRotation.x
      value: 0.047001436
      objectReference: {fileID: 0}
    - target: {fileID: 4433239628633526, guid: 0c74bed2ad49fad4d94fca86441ad49f, type: 3}
      propertyPath: m_LocalRotation.y
      value: -0.1534421
      objectReference: {fileID: 0}
    - target: {fileID: 4433239628633526, guid: 0c74bed2ad49fad4d94fca86441ad49f, type: 3}
      propertyPath: m_LocalRotation.z
      value: 0.29352435
      objectReference: {fileID: 0}
    - target: {fileID: 4433239628633526, guid: 0c74bed2ad49fad4d94fca86441ad49f, type: 3}
      propertyPath: m_LocalRotation.w
      value: 0.9423852
      objectReference: {fileID: 0}
    - target: {fileID: 4433239628633526, guid: 0c74bed2ad49fad4d94fca86441ad49f, type: 3}
      propertyPath: m_LocalPosition.x
      value: -0.11653765
      objectReference: {fileID: 0}
    - target: {fileID: 4433239628633526, guid: 0c74bed2ad49fad4d94fca86441ad49f, type: 3}
      propertyPath: m_LocalPosition.y
      value: -0.000000010728836
      objectReference: {fileID: 0}
    - target: {fileID: 4433239628633526, guid: 0c74bed2ad49fad4d94fca86441ad49f, type: 3}
      propertyPath: m_LocalPosition.z
      value: -0.000000019073486
      objectReference: {fileID: 0}
    - target: {fileID: 4448216364452398, guid: 0c74bed2ad49fad4d94fca86441ad49f, type: 3}
      propertyPath: m_LocalRotation.x
      value: -0.4492821
      objectReference: {fileID: 0}
    - target: {fileID: 4448216364452398, guid: 0c74bed2ad49fad4d94fca86441ad49f, type: 3}
      propertyPath: m_LocalRotation.y
      value: 0.5328751
      objectReference: {fileID: 0}
    - target: {fileID: 4448216364452398, guid: 0c74bed2ad49fad4d94fca86441ad49f, type: 3}
      propertyPath: m_LocalRotation.z
      value: 0.49871847
      objectReference: {fileID: 0}
    - target: {fileID: 4448216364452398, guid: 0c74bed2ad49fad4d94fca86441ad49f, type: 3}
      propertyPath: m_LocalRotation.w
      value: 0.5152375
      objectReference: {fileID: 0}
    - target: {fileID: 4518817429106196, guid: 0c74bed2ad49fad4d94fca86441ad49f, type: 3}
      propertyPath: m_LocalRotation.x
      value: 0.000000010225377
      objectReference: {fileID: 0}
    - target: {fileID: 4518817429106196, guid: 0c74bed2ad49fad4d94fca86441ad49f, type: 3}
      propertyPath: m_LocalRotation.y
      value: 0.00000003596869
      objectReference: {fileID: 0}
    - target: {fileID: 4518817429106196, guid: 0c74bed2ad49fad4d94fca86441ad49f, type: 3}
      propertyPath: m_LocalRotation.z
      value: 0.19649206
      objectReference: {fileID: 0}
    - target: {fileID: 4518817429106196, guid: 0c74bed2ad49fad4d94fca86441ad49f, type: 3}
      propertyPath: m_LocalRotation.w
      value: 0.98050547
      objectReference: {fileID: 0}
    - target: {fileID: 4518817429106196, guid: 0c74bed2ad49fad4d94fca86441ad49f, type: 3}
      propertyPath: m_LocalPosition.x
      value: -0.10840542
      objectReference: {fileID: 0}
    - target: {fileID: 4518817429106196, guid: 0c74bed2ad49fad4d94fca86441ad49f, type: 3}
      propertyPath: m_LocalPosition.y
      value: 0
      objectReference: {fileID: 0}
    - target: {fileID: 4518817429106196, guid: 0c74bed2ad49fad4d94fca86441ad49f, type: 3}
      propertyPath: m_LocalPosition.z
      value: 0
      objectReference: {fileID: 0}
    - target: {fileID: 4550851772836774, guid: 0c74bed2ad49fad4d94fca86441ad49f, type: 3}
      propertyPath: m_LocalRotation.x
      value: -0.02247861
      objectReference: {fileID: 0}
    - target: {fileID: 4550851772836774, guid: 0c74bed2ad49fad4d94fca86441ad49f, type: 3}
      propertyPath: m_LocalRotation.y
      value: -0.08845169
      objectReference: {fileID: 0}
    - target: {fileID: 4550851772836774, guid: 0c74bed2ad49fad4d94fca86441ad49f, type: 3}
      propertyPath: m_LocalRotation.z
      value: -0.292627
      objectReference: {fileID: 0}
    - target: {fileID: 4550851772836774, guid: 0c74bed2ad49fad4d94fca86441ad49f, type: 3}
      propertyPath: m_LocalRotation.w
      value: 0.9518616
      objectReference: {fileID: 0}
    - target: {fileID: 4550851772836774, guid: 0c74bed2ad49fad4d94fca86441ad49f, type: 3}
      propertyPath: m_LocalPosition.x
      value: -0.116537645
      objectReference: {fileID: 0}
    - target: {fileID: 4550851772836774, guid: 0c74bed2ad49fad4d94fca86441ad49f, type: 3}
      propertyPath: m_LocalPosition.y
      value: -0.000000009536743
      objectReference: {fileID: 0}
    - target: {fileID: 4550851772836774, guid: 0c74bed2ad49fad4d94fca86441ad49f, type: 3}
      propertyPath: m_LocalPosition.z
      value: 0
      objectReference: {fileID: 0}
    - target: {fileID: 4553016715167686, guid: 0c74bed2ad49fad4d94fca86441ad49f, type: 3}
      propertyPath: m_LocalRotation.x
      value: 0.055416174
      objectReference: {fileID: 0}
    - target: {fileID: 4553016715167686, guid: 0c74bed2ad49fad4d94fca86441ad49f, type: 3}
      propertyPath: m_LocalRotation.y
      value: 0.027004788
      objectReference: {fileID: 0}
    - target: {fileID: 4553016715167686, guid: 0c74bed2ad49fad4d94fca86441ad49f, type: 3}
      propertyPath: m_LocalRotation.z
      value: -0.09479573
      objectReference: {fileID: 0}
    - target: {fileID: 4553016715167686, guid: 0c74bed2ad49fad4d94fca86441ad49f, type: 3}
      propertyPath: m_LocalRotation.w
      value: 0.99358624
      objectReference: {fileID: 0}
    - target: {fileID: 4553016715167686, guid: 0c74bed2ad49fad4d94fca86441ad49f, type: 3}
      propertyPath: m_LocalPosition.y
      value: -0.0052522467
      objectReference: {fileID: 0}
    - target: {fileID: 4553016715167686, guid: 0c74bed2ad49fad4d94fca86441ad49f, type: 3}
      propertyPath: m_LocalPosition.z
      value: 0.02666357
      objectReference: {fileID: 0}
    - target: {fileID: 4556731895387518, guid: 0c74bed2ad49fad4d94fca86441ad49f, type: 3}
      propertyPath: m_LocalPosition.x
      value: -0.08257887
      objectReference: {fileID: 0}
    - target: {fileID: 4556731895387518, guid: 0c74bed2ad49fad4d94fca86441ad49f, type: 3}
      propertyPath: m_LocalPosition.y
      value: 0.0015519619
      objectReference: {fileID: 0}
    - target: {fileID: 4556731895387518, guid: 0c74bed2ad49fad4d94fca86441ad49f, type: 3}
      propertyPath: m_LocalPosition.z
      value: -0.024709873
      objectReference: {fileID: 0}
    - target: {fileID: 4556731895387518, guid: 0c74bed2ad49fad4d94fca86441ad49f, type: 3}
      propertyPath: m_LocalRotation.x
      value: 0.00038228175
      objectReference: {fileID: 0}
    - target: {fileID: 4556731895387518, guid: 0c74bed2ad49fad4d94fca86441ad49f, type: 3}
      propertyPath: m_LocalRotation.y
      value: -0.27959302
      objectReference: {fileID: 0}
    - target: {fileID: 4556731895387518, guid: 0c74bed2ad49fad4d94fca86441ad49f, type: 3}
      propertyPath: m_LocalRotation.z
      value: -0.000111336456
      objectReference: {fileID: 0}
    - target: {fileID: 4556731895387518, guid: 0c74bed2ad49fad4d94fca86441ad49f, type: 3}
      propertyPath: m_LocalRotation.w
      value: 0.96011853
      objectReference: {fileID: 0}
    - target: {fileID: 4610845408761000, guid: 0c74bed2ad49fad4d94fca86441ad49f, type: 3}
      propertyPath: m_LocalRotation.x
      value: 0.00039816467
      objectReference: {fileID: 0}
    - target: {fileID: 4610845408761000, guid: 0c74bed2ad49fad4d94fca86441ad49f, type: 3}
      propertyPath: m_LocalRotation.y
      value: -0.0000000037223236
      objectReference: {fileID: 0}
    - target: {fileID: 4610845408761000, guid: 0c74bed2ad49fad4d94fca86441ad49f, type: 3}
      propertyPath: m_LocalRotation.z
      value: 0.000000007452063
      objectReference: {fileID: 0}
    - target: {fileID: 4610845408761000, guid: 0c74bed2ad49fad4d94fca86441ad49f, type: 3}
      propertyPath: m_LocalPosition.x
      value: -0.095096186
      objectReference: {fileID: 0}
    - target: {fileID: 4610845408761000, guid: 0c74bed2ad49fad4d94fca86441ad49f, type: 3}
      propertyPath: m_LocalPosition.z
      value: 0.008340406
      objectReference: {fileID: 0}
    - target: {fileID: 4610845408761000, guid: 0c74bed2ad49fad4d94fca86441ad49f, type: 3}
      propertyPath: m_LocalRotation.w
      value: 0.99999994
      objectReference: {fileID: 0}
    - target: {fileID: 4616910600875754, guid: 0c74bed2ad49fad4d94fca86441ad49f, type: 3}
      propertyPath: m_LocalRotation.x
      value: -0.00039815868
      objectReference: {fileID: 0}
    - target: {fileID: 4616910600875754, guid: 0c74bed2ad49fad4d94fca86441ad49f, type: 3}
      propertyPath: m_LocalRotation.y
      value: 0
      objectReference: {fileID: 0}
    - target: {fileID: 4616910600875754, guid: 0c74bed2ad49fad4d94fca86441ad49f, type: 3}
      propertyPath: m_LocalRotation.z
      value: -0
      objectReference: {fileID: 0}
    - target: {fileID: 4616910600875754, guid: 0c74bed2ad49fad4d94fca86441ad49f, type: 3}
      propertyPath: m_LocalPosition.x
      value: -0.09509621
      objectReference: {fileID: 0}
    - target: {fileID: 4616910600875754, guid: 0c74bed2ad49fad4d94fca86441ad49f, type: 3}
      propertyPath: m_LocalPosition.z
      value: -0.008340401
      objectReference: {fileID: 0}
    - target: {fileID: 4616910600875754, guid: 0c74bed2ad49fad4d94fca86441ad49f, type: 3}
      propertyPath: m_LocalPosition.y
      value: 0.0013267898
      objectReference: {fileID: 0}
    - target: {fileID: 4653375670694978, guid: 0c74bed2ad49fad4d94fca86441ad49f, type: 3}
      propertyPath: m_LocalRotation.x
      value: 0.000000013188918
      objectReference: {fileID: 0}
    - target: {fileID: 4653375670694978, guid: 0c74bed2ad49fad4d94fca86441ad49f, type: 3}
      propertyPath: m_LocalRotation.y
      value: -0.000000018867185
      objectReference: {fileID: 0}
    - target: {fileID: 4653375670694978, guid: 0c74bed2ad49fad4d94fca86441ad49f, type: 3}
      propertyPath: m_LocalRotation.z
      value: 0.6349625
      objectReference: {fileID: 0}
    - target: {fileID: 4653375670694978, guid: 0c74bed2ad49fad4d94fca86441ad49f, type: 3}
      propertyPath: m_LocalRotation.w
      value: 0.77254295
      objectReference: {fileID: 0}
    - target: {fileID: 4653375670694978, guid: 0c74bed2ad49fad4d94fca86441ad49f, type: 3}
      propertyPath: m_LocalPosition.y
      value: -0.0000000047683715
      objectReference: {fileID: 0}
    - target: {fileID: 4653375670694978, guid: 0c74bed2ad49fad4d94fca86441ad49f, type: 3}
      propertyPath: m_LocalPosition.z
      value: 0
      objectReference: {fileID: 0}
    - target: {fileID: 4653375670694978, guid: 0c74bed2ad49fad4d94fca86441ad49f, type: 3}
      propertyPath: m_LocalPosition.x
      value: -0.1284573
      objectReference: {fileID: 0}
    - target: {fileID: 4667715449529578, guid: 0c74bed2ad49fad4d94fca86441ad49f, type: 3}
      propertyPath: m_LocalRotation.x
      value: -0.00000003611201
      objectReference: {fileID: 0}
    - target: {fileID: 4667715449529578, guid: 0c74bed2ad49fad4d94fca86441ad49f, type: 3}
      propertyPath: m_LocalRotation.y
      value: 0.00000014360273
      objectReference: {fileID: 0}
    - target: {fileID: 4667715449529578, guid: 0c74bed2ad49fad4d94fca86441ad49f, type: 3}
      propertyPath: m_LocalRotation.z
      value: 0.5208122
      objectReference: {fileID: 0}
    - target: {fileID: 4667715449529578, guid: 0c74bed2ad49fad4d94fca86441ad49f, type: 3}
      propertyPath: m_LocalRotation.w
      value: 0.8536713
      objectReference: {fileID: 0}
    - target: {fileID: 4667715449529578, guid: 0c74bed2ad49fad4d94fca86441ad49f, type: 3}
      propertyPath: m_LocalPosition.x
      value: -0.12845728
      objectReference: {fileID: 0}
    - target: {fileID: 4667715449529578, guid: 0c74bed2ad49fad4d94fca86441ad49f, type: 3}
      propertyPath: m_LocalPosition.y
      value: -0.0000000011920929
      objectReference: {fileID: 0}
    - target: {fileID: 4667715449529578, guid: 0c74bed2ad49fad4d94fca86441ad49f, type: 3}
      propertyPath: m_LocalPosition.z
      value: 0.000000009536743
      objectReference: {fileID: 0}
    - target: {fileID: 4695581706083270, guid: 0c74bed2ad49fad4d94fca86441ad49f, type: 3}
      propertyPath: m_LocalRotation.x
      value: 0.11484933
      objectReference: {fileID: 0}
    - target: {fileID: 4695581706083270, guid: 0c74bed2ad49fad4d94fca86441ad49f, type: 3}
      propertyPath: m_LocalRotation.y
      value: -0.031932287
      objectReference: {fileID: 0}
    - target: {fileID: 4695581706083270, guid: 0c74bed2ad49fad4d94fca86441ad49f, type: 3}
      propertyPath: m_LocalRotation.z
      value: 0.18235429
      objectReference: {fileID: 0}
    - target: {fileID: 4695581706083270, guid: 0c74bed2ad49fad4d94fca86441ad49f, type: 3}
      propertyPath: m_LocalRotation.w
      value: 0.97598
      objectReference: {fileID: 0}
    - target: {fileID: 4695581706083270, guid: 0c74bed2ad49fad4d94fca86441ad49f, type: 3}
      propertyPath: m_LocalPosition.x
      value: -0.13219479
      objectReference: {fileID: 0}
    - target: {fileID: 4695581706083270, guid: 0c74bed2ad49fad4d94fca86441ad49f, type: 3}
      propertyPath: m_LocalPosition.y
      value: -0.011470909
      objectReference: {fileID: 0}
    - target: {fileID: 4695581706083270, guid: 0c74bed2ad49fad4d94fca86441ad49f, type: 3}
      propertyPath: m_LocalPosition.z
      value: -0.00000869751
      objectReference: {fileID: 0}
    - target: {fileID: 4736868852997238, guid: 0c74bed2ad49fad4d94fca86441ad49f, type: 3}
      propertyPath: m_LocalRotation.x
      value: -0.21551219
      objectReference: {fileID: 0}
    - target: {fileID: 4736868852997238, guid: 0c74bed2ad49fad4d94fca86441ad49f, type: 3}
      propertyPath: m_LocalRotation.y
      value: 0.87278146
      objectReference: {fileID: 0}
    - target: {fileID: 4736868852997238, guid: 0c74bed2ad49fad4d94fca86441ad49f, type: 3}
      propertyPath: m_LocalRotation.z
      value: 0.43556848
      objectReference: {fileID: 0}
    - target: {fileID: 4736868852997238, guid: 0c74bed2ad49fad4d94fca86441ad49f, type: 3}
      propertyPath: m_LocalRotation.w
      value: 0.045686137
      objectReference: {fileID: 0}
    - target: {fileID: 4736868852997238, guid: 0c74bed2ad49fad4d94fca86441ad49f, type: 3}
      propertyPath: m_LocalPosition.x
      value: 0.00000009534996
      objectReference: {fileID: 0}
    - target: {fileID: 4736868852997238, guid: 0c74bed2ad49fad4d94fca86441ad49f, type: 3}
      propertyPath: m_LocalPosition.y
      value: 0.00000010486925
      objectReference: {fileID: 0}
    - target: {fileID: 4736868852997238, guid: 0c74bed2ad49fad4d94fca86441ad49f, type: 3}
      propertyPath: m_LocalPosition.z
      value: 0.065819904
      objectReference: {fileID: 0}
    - target: {fileID: 4770255066720420, guid: 0c74bed2ad49fad4d94fca86441ad49f, type: 3}
      propertyPath: m_LocalRotation.x
      value: -0.048252273
      objectReference: {fileID: 0}
    - target: {fileID: 4770255066720420, guid: 0c74bed2ad49fad4d94fca86441ad49f, type: 3}
      propertyPath: m_LocalRotation.y
      value: -0.008997537
      objectReference: {fileID: 0}
    - target: {fileID: 4770255066720420, guid: 0c74bed2ad49fad4d94fca86441ad49f, type: 3}
      propertyPath: m_LocalRotation.z
      value: -0.7110279
      objectReference: {fileID: 0}
    - target: {fileID: 4770255066720420, guid: 0c74bed2ad49fad4d94fca86441ad49f, type: 3}
      propertyPath: m_LocalRotation.w
      value: 0.7014486
      objectReference: {fileID: 0}
    - target: {fileID: 4770255066720420, guid: 0c74bed2ad49fad4d94fca86441ad49f, type: 3}
      propertyPath: m_LocalPosition.x
      value: -0.03855766
      objectReference: {fileID: 0}
    - target: {fileID: 4770255066720420, guid: 0c74bed2ad49fad4d94fca86441ad49f, type: 3}
      propertyPath: m_LocalPosition.y
      value: 0.038214017
      objectReference: {fileID: 0}
    - target: {fileID: 4793021511278964, guid: 0c74bed2ad49fad4d94fca86441ad49f, type: 3}
      propertyPath: m_LocalRotation.y
      value: 0.49999967
      objectReference: {fileID: 0}
    - target: {fileID: 4793021511278964, guid: 0c74bed2ad49fad4d94fca86441ad49f, type: 3}
      propertyPath: m_LocalRotation.z
      value: 0.49999967
      objectReference: {fileID: 0}
    - target: {fileID: 4793021511278964, guid: 0c74bed2ad49fad4d94fca86441ad49f, type: 3}
      propertyPath: m_LocalPosition.x
      value: 0.022340283
      objectReference: {fileID: 0}
    - target: {fileID: 4793021511278964, guid: 0c74bed2ad49fad4d94fca86441ad49f, type: 3}
      propertyPath: m_LocalPosition.y
      value: 0.24132785
      objectReference: {fileID: 0}
    - target: {fileID: 4793021511278964, guid: 0c74bed2ad49fad4d94fca86441ad49f, type: 3}
      propertyPath: m_LocalPosition.z
      value: 0.0109218815
      objectReference: {fileID: 0}
    - target: {fileID: 4839154609394230, guid: 0c74bed2ad49fad4d94fca86441ad49f, type: 3}
      propertyPath: m_LocalRotation.x
      value: -0.1312086
      objectReference: {fileID: 0}
    - target: {fileID: 4839154609394230, guid: 0c74bed2ad49fad4d94fca86441ad49f, type: 3}
      propertyPath: m_LocalRotation.y
      value: -0.028211905
      objectReference: {fileID: 0}
    - target: {fileID: 4839154609394230, guid: 0c74bed2ad49fad4d94fca86441ad49f, type: 3}
      propertyPath: m_LocalRotation.z
      value: 0.092621274
      objectReference: {fileID: 0}
    - target: {fileID: 4839154609394230, guid: 0c74bed2ad49fad4d94fca86441ad49f, type: 3}
      propertyPath: m_LocalRotation.w
      value: 0.9866153
      objectReference: {fileID: 0}
    - target: {fileID: 4839154609394230, guid: 0c74bed2ad49fad4d94fca86441ad49f, type: 3}
      propertyPath: m_LocalPosition.x
      value: -0.13203804
      objectReference: {fileID: 0}
    - target: {fileID: 4839154609394230, guid: 0c74bed2ad49fad4d94fca86441ad49f, type: 3}
      propertyPath: m_LocalPosition.y
      value: -0.00009964348
      objectReference: {fileID: 0}
    - target: {fileID: 4839154609394230, guid: 0c74bed2ad49fad4d94fca86441ad49f, type: 3}
      propertyPath: m_LocalPosition.z
      value: 0.000027874887
      objectReference: {fileID: 0}
    - target: {fileID: 4856146082550060, guid: 0c74bed2ad49fad4d94fca86441ad49f, type: 3}
      propertyPath: m_LocalPosition.x
      value: 0
      objectReference: {fileID: 0}
    - target: {fileID: 4856146082550060, guid: 0c74bed2ad49fad4d94fca86441ad49f, type: 3}
      propertyPath: m_LocalPosition.y
      value: 0
      objectReference: {fileID: 0}
    - target: {fileID: 4856146082550060, guid: 0c74bed2ad49fad4d94fca86441ad49f, type: 3}
      propertyPath: m_LocalPosition.z
      value: 0
      objectReference: {fileID: 0}
    - target: {fileID: 4856146082550060, guid: 0c74bed2ad49fad4d94fca86441ad49f, type: 3}
      propertyPath: m_LocalRotation.x
      value: 0
      objectReference: {fileID: 0}
    - target: {fileID: 4856146082550060, guid: 0c74bed2ad49fad4d94fca86441ad49f, type: 3}
      propertyPath: m_LocalRotation.y
      value: 0
      objectReference: {fileID: 0}
    - target: {fileID: 4856146082550060, guid: 0c74bed2ad49fad4d94fca86441ad49f, type: 3}
      propertyPath: m_LocalRotation.z
      value: 0
      objectReference: {fileID: 0}
    - target: {fileID: 4856146082550060, guid: 0c74bed2ad49fad4d94fca86441ad49f, type: 3}
      propertyPath: m_LocalRotation.w
      value: 1
      objectReference: {fileID: 0}
    - target: {fileID: 4856146082550060, guid: 0c74bed2ad49fad4d94fca86441ad49f, type: 3}
      propertyPath: m_RootOrder
      value: 2
      objectReference: {fileID: 0}
    - target: {fileID: 4856146082550060, guid: 0c74bed2ad49fad4d94fca86441ad49f, type: 3}
      propertyPath: m_LocalEulerAnglesHint.x
      value: 0
      objectReference: {fileID: 0}
    - target: {fileID: 4856146082550060, guid: 0c74bed2ad49fad4d94fca86441ad49f, type: 3}
      propertyPath: m_LocalEulerAnglesHint.y
      value: 0
      objectReference: {fileID: 0}
    - target: {fileID: 4856146082550060, guid: 0c74bed2ad49fad4d94fca86441ad49f, type: 3}
      propertyPath: m_LocalEulerAnglesHint.z
      value: 0
      objectReference: {fileID: 0}
    - target: {fileID: 4968971770051734, guid: 0c74bed2ad49fad4d94fca86441ad49f, type: 3}
      propertyPath: m_LocalRotation.x
      value: 0.20969349
      objectReference: {fileID: 0}
    - target: {fileID: 4968971770051734, guid: 0c74bed2ad49fad4d94fca86441ad49f, type: 3}
      propertyPath: m_LocalRotation.y
      value: 0.48074493
      objectReference: {fileID: 0}
    - target: {fileID: 4968971770051734, guid: 0c74bed2ad49fad4d94fca86441ad49f, type: 3}
      propertyPath: m_LocalRotation.z
      value: -0.23181564
      objectReference: {fileID: 0}
    - target: {fileID: 4968971770051734, guid: 0c74bed2ad49fad4d94fca86441ad49f, type: 3}
      propertyPath: m_LocalRotation.w
      value: 0.8192524
      objectReference: {fileID: 0}
    - target: {fileID: 4968971770051734, guid: 0c74bed2ad49fad4d94fca86441ad49f, type: 3}
      propertyPath: m_LocalPosition.x
      value: -0.073148526
      objectReference: {fileID: 0}
    - target: {fileID: 4968971770051734, guid: 0c74bed2ad49fad4d94fca86441ad49f, type: 3}
      propertyPath: m_LocalPosition.y
      value: 0.000000045143658
      objectReference: {fileID: 0}
    - target: {fileID: 4968971770051734, guid: 0c74bed2ad49fad4d94fca86441ad49f, type: 3}
      propertyPath: m_LocalPosition.z
      value: 0.000000012801873
      objectReference: {fileID: 0}
    - target: {fileID: 95394820208651578, guid: 0c74bed2ad49fad4d94fca86441ad49f,
        type: 3}
      propertyPath: m_Controller
      value: 
      objectReference: {fileID: 9100000, guid: c929656c07909194ab8a5cd79f5f371d, type: 2}
    m_RemovedComponents:
    - {fileID: 95394820208651578, guid: 0c74bed2ad49fad4d94fca86441ad49f, type: 3}
  m_SourcePrefab: {fileID: 100100000, guid: 0c74bed2ad49fad4d94fca86441ad49f, type: 3}
--- !u!1 &2754997738983711161 stripped
GameObject:
  m_CorrespondingSourceObject: {fileID: 1207488849850406, guid: 0c74bed2ad49fad4d94fca86441ad49f,
    type: 3}
  m_PrefabInstance: {fileID: 2756200690028630431}
  m_PrefabAsset: {fileID: 0}
--- !u!1 &2754991001079287231 stripped
GameObject:
  m_CorrespondingSourceObject: {fileID: 1209826661981216, guid: 0c74bed2ad49fad4d94fca86441ad49f,
    type: 3}
  m_PrefabInstance: {fileID: 2756200690028630431}
  m_PrefabAsset: {fileID: 0}
--- !u!1001 &3898216830680674264
PrefabInstance:
  m_ObjectHideFlags: 0
  serializedVersion: 2
  m_Modification:
    m_TransformParent: {fileID: 0}
    m_Modifications:
    - target: {fileID: 2589271036623725185, guid: a5512036668307c42a913e618d0a80e3,
        type: 3}
      propertyPath: m_Radius
      value: 0.1
      objectReference: {fileID: 0}
    - target: {fileID: 4907579246455831498, guid: a5512036668307c42a913e618d0a80e3,
        type: 3}
      propertyPath: m_LocalPosition.x
      value: 0
      objectReference: {fileID: 0}
    - target: {fileID: 4907579246455831498, guid: a5512036668307c42a913e618d0a80e3,
        type: 3}
      propertyPath: m_LocalPosition.y
      value: 0
      objectReference: {fileID: 0}
    - target: {fileID: 4907579246455831498, guid: a5512036668307c42a913e618d0a80e3,
        type: 3}
      propertyPath: m_LocalPosition.z
      value: 0
      objectReference: {fileID: 0}
    - target: {fileID: 4907579246455831498, guid: a5512036668307c42a913e618d0a80e3,
        type: 3}
      propertyPath: m_LocalRotation.x
      value: 0
      objectReference: {fileID: 0}
    - target: {fileID: 4907579246455831498, guid: a5512036668307c42a913e618d0a80e3,
        type: 3}
      propertyPath: m_LocalRotation.y
      value: 0
      objectReference: {fileID: 0}
    - target: {fileID: 4907579246455831498, guid: a5512036668307c42a913e618d0a80e3,
        type: 3}
      propertyPath: m_LocalRotation.z
      value: 0
      objectReference: {fileID: 0}
    - target: {fileID: 4907579246455831498, guid: a5512036668307c42a913e618d0a80e3,
        type: 3}
      propertyPath: m_LocalRotation.w
      value: 1
      objectReference: {fileID: 0}
    - target: {fileID: 4907579246455831498, guid: a5512036668307c42a913e618d0a80e3,
        type: 3}
      propertyPath: m_RootOrder
      value: 0
      objectReference: {fileID: 0}
    - target: {fileID: 4907579246455831498, guid: a5512036668307c42a913e618d0a80e3,
        type: 3}
      propertyPath: m_LocalEulerAnglesHint.x
      value: 0
      objectReference: {fileID: 0}
    - target: {fileID: 4907579246455831498, guid: a5512036668307c42a913e618d0a80e3,
        type: 3}
      propertyPath: m_LocalEulerAnglesHint.y
      value: 0
      objectReference: {fileID: 0}
    - target: {fileID: 4907579246455831498, guid: a5512036668307c42a913e618d0a80e3,
        type: 3}
      propertyPath: m_LocalEulerAnglesHint.z
      value: 0
      objectReference: {fileID: 0}
    - target: {fileID: 4907579246455831498, guid: a5512036668307c42a913e618d0a80e3,
        type: 3}
      propertyPath: m_LocalScale.x
      value: 2.5
      objectReference: {fileID: 0}
    - target: {fileID: 4907579246455831498, guid: a5512036668307c42a913e618d0a80e3,
        type: 3}
      propertyPath: m_LocalScale.y
      value: 3
      objectReference: {fileID: 0}
    - target: {fileID: 4907579246455831498, guid: a5512036668307c42a913e618d0a80e3,
        type: 3}
      propertyPath: m_LocalScale.z
      value: 2.5
      objectReference: {fileID: 0}
    - target: {fileID: 4907579246455831499, guid: a5512036668307c42a913e618d0a80e3,
        type: 3}
      propertyPath: blendedMovement
      value: 1
      objectReference: {fileID: 0}
    - target: {fileID: 4907579246455831500, guid: a5512036668307c42a913e618d0a80e3,
        type: 3}
      propertyPath: m_Name
      value: Zombie Enemy
      objectReference: {fileID: 0}
    - target: {fileID: 4907579246455831501, guid: a5512036668307c42a913e618d0a80e3,
        type: 3}
      propertyPath: m_BaseOffset
      value: 0
      objectReference: {fileID: 0}
    - target: {fileID: 4907579246455831501, guid: a5512036668307c42a913e618d0a80e3,
        type: 3}
      propertyPath: m_Height
      value: 1
      objectReference: {fileID: 0}
    - target: {fileID: 4907579246455831501, guid: a5512036668307c42a913e618d0a80e3,
        type: 3}
      propertyPath: m_StoppingDistance
      value: 3
      objectReference: {fileID: 0}
    - target: {fileID: 4907579246886842350, guid: a5512036668307c42a913e618d0a80e3,
        type: 3}
      propertyPath: m_IsActive
      value: 0
      objectReference: {fileID: 0}
    - target: {fileID: 8479228194970937601, guid: a5512036668307c42a913e618d0a80e3,
        type: 3}
      propertyPath: m_IsActive
      value: 0
      objectReference: {fileID: 0}
    - target: {fileID: 8496970725942189936, guid: a5512036668307c42a913e618d0a80e3,
        type: 3}
      propertyPath: m_CullingMode
      value: 1
      objectReference: {fileID: 0}
    - target: {fileID: 8496970725942189936, guid: a5512036668307c42a913e618d0a80e3,
        type: 3}
      propertyPath: m_Avatar
      value: 
      objectReference: {fileID: 9000000, guid: 8c53cffd52097cf4582f0a090c9a833e, type: 3}
    - target: {fileID: 8496970725942189936, guid: a5512036668307c42a913e618d0a80e3,
        type: 3}
      propertyPath: m_Controller
      value: 
      objectReference: {fileID: 9100000, guid: c929656c07909194ab8a5cd79f5f371d, type: 2}
    - target: {fileID: 8762271385604344283, guid: a5512036668307c42a913e618d0a80e3,
        type: 3}
      propertyPath: dieTrigger
      value: Dead
      objectReference: {fileID: 0}
    - target: {fileID: 8762271385604344283, guid: a5512036668307c42a913e618d0a80e3,
        type: 3}
      propertyPath: weakSpot
      value: 
      objectReference: {fileID: 2249173766846450712}
    m_RemovedComponents:
    - {fileID: 4907579246886842349, guid: a5512036668307c42a913e618d0a80e3, type: 3}
    - {fileID: 3289660039941534257, guid: a5512036668307c42a913e618d0a80e3, type: 3}
    - {fileID: 5687382737016482954, guid: a5512036668307c42a913e618d0a80e3, type: 3}
    - {fileID: 4907579246886842346, guid: a5512036668307c42a913e618d0a80e3, type: 3}
  m_SourcePrefab: {fileID: 100100000, guid: a5512036668307c42a913e618d0a80e3, type: 3}
--- !u!4 &8215136227108557842 stripped
Transform:
  m_CorrespondingSourceObject: {fileID: 4907579246455831498, guid: a5512036668307c42a913e618d0a80e3,
    type: 3}
  m_PrefabInstance: {fileID: 3898216830680674264}
  m_PrefabAsset: {fileID: 0}
